Project,Member,Call Time,Remote Party,Local Party,Agent Ring Duration,Preview Time,Handle Time,Talk Time,Hold Time,Wrapup Time,Ext.Talk Time,Disposition Service,Abandoned(Dialer),Ext.Transfer,Ext.CRMID,CRMID,Disposition,Flow Type,Urgent,Scheduled,Audio,Screen Recodring,Chat,Screen Capture,Dialer Mode,Dialer Time,Dialer Ring Duration,Agent Dialing Time,AMD,FAX,Abdndoned(IVR),IVR Time,Queue Time,Conference Id,Conference Duration,Abandoned(Queue),Entry Position,V-Hold Time,V-Hold,Business Flow Id,Call Id,externaltransferparty,Notes
DERMALIV Inbound,kristin,05/13/2015 15:47:38,9184946458,8887712337,0:0:0,0:0:6,0:3:19,0:1:51,0:0:0,0:1:28,0:0:0,AGENT,,,,51e5b48d-da0a-4fe6-91db-1b47ba942d07,BUSINESS/Completed_Partial,INBOUND,,,4$$Kristin M_5-13-2015 3-48-10 PM_3f7af166-a0ff-4c28-9647-7c76a306aed4.wav,,,,,,,0:0:0,,,,0:0:10,0:0:21,,0:0:0,false,1,0:0:0,false,5036b808-588d-4fb6-bc73-cd89709b5708,7005481161785300126-1431546458@10.10.52.109,,
DERMALIV Inbound,,05/13/2015 15:41:38,6054316638,8887712337,,,0:0:0,0:0:0,0:0:0,0:0:0,0:4:1,PARKING_SERVICE,,yes,,,SYSTEM/HANGUP,INBOUND,,,,,,,,,,,,,,0:0:19,0:0:33,,0:0:0,false,1,0:0:0,false,9ae96289-fa28-4d5c-8cb0-c92f1dafac1b,7005481161785063433-1431546097@10.10.52.109,18554105996,
DERMALIV Inbound,joec,05/13/2015 15:39:22,3059726261,8887712337,0:0:0,0:0:9,0:8:44,0:2:13,0:0:0,0:6:32,0:0:0,AGENT,,,,bc0355a5-2d5d-4a41-b834-d8ca79ce9c32,BUSINESS/Cancel_No_action_needed,INBOUND,,,4$$Joe C_5-13-2015 3-39-45 PM_fb3ac036-6259-4f9c-944e-9c3d42689e0f.wav,,,,,,,0:0:0,,,,0:0:13,0:0:9,,0:0:0,false,1,0:0:0,false,36575bbf-b778-47dd-bac7-3252f7b9dcfd,7005481161784973057-1431545962@10.10.52.109,,
DERMALIV Inbound,kristin,05/13/2015 15:35:55,8326177448,8887712337,0:0:0,0:0:6,0:11:34,0:5:39,0:0:0,0:5:56,0:0:0,AGENT,,,,18a2cd47-d5e1-42cb-b8bb-31e1877deceb,BUSINESS/Cancel_Request_RMA,INBOUND,,,4$$Kristin M_5-13-2015 3-36-29 PM_d71af213-4b0e-4b09-b6a0-9b493a078d81.wav,,,,,,,0:0:0,,,,0:0:27,0:0:6,,0:0:0,false,1,0:0:0,false,65f984f0-2ed5-4a2f-a902-a3cc2db0cf2c,7005481161784830575-1431545755@10.10.52.109,,
DERMALIV Inbound,joec,05/13/2015 15:22:00,8564685572,8887712337,0:0:0,0:0:7,0:13:21,0:8:36,0:0:0,0:4:45,0:0:0,AGENT,,,,53c8e4ec-9128-4373-9cb7-acaa2fadd711,BUSINESS/Place_An_Order,INBOUND,,,4$$Joe C_5-13-2015 3-22-28 PM_2aa177c8-5c06-40db-a4af-c8291f233cc6.wav,,,,,,,0:0:0,,,,0:0:21,0:0:7,,0:0:0,false,1,0:0:0,false,9e28aa0f-57aa-47da-b608-fa1fdb38326a,7005481161784292467-1431544920@10.10.52.109,,
DERMALIV Inbound,joec,05/13/2015 14:59:03,3528614467,8887712337,0:0:0,0:0:6,0:10:57,0:1:58,0:0:0,0:8:59,0:0:0,AGENT,,,,356bfc28-dd68-47e0-8fde-96c6c76ce403,BUSINESS/Place_An_Order,INBOUND,,,4$$Joe C_5-13-2015 2-59-22 PM_0c9adac4-7a82-48f2-81f3-9455c804f2f6.wav,,,,,,,0:0:0,,,,0:0:14,0:0:6,,0:0:0,false,1,0:0:0,false,575614d6-0c27-4342-87a5-457b3a52c625,7005481161783488875-1431543542@10.10.52.109,,
DERMALIV Inbound,joec,05/13/2015 14:37:46,5187297118,8887712337,0:0:0,0:0:9,0:3:8,0:3:1,0:0:0,0:0:8,0:0:0,AGENT,,,,e97b108e-038f-497e-a174-4c5b887df4fe,BUSINESS/Order_Inquiry,INBOUND,,,4$$Joe C_5-13-2015 2-38-08 PM_47505f0f-ecff-47b8-9473-dcc1afc09198.wav,,,,,,,0:0:0,,,,0:0:12,0:0:9,,0:0:0,false,1,0:0:0,false,3c6671d3-22ed-4275-9503-5dc7aa712331,7005481161782708181-1431542266@10.10.52.109,,
DERMALIV Inbound,kristin,05/13/2015 14:14:07,7607491296,8887712337,0:0:0,0:0:7,0:1:4,0:0:59,0:0:0,0:0:6,0:0:0,AGENT,,,,eede5ec0-32f6-49a3-8240-18d9b241b8ce,BUSINESS/Update_Info,INBOUND,,,4$$Kristin M_5-13-2015 2-14-27 PM_072eac86-f285-4d76-a3bc-e7f13b0e3427.wav,,,,,,,0:0:0,,,,0:0:13,0:0:7,,0:0:0,false,1,0:0:0,false,4b90ed15-bdbe-470a-909b-7f394ff8a660,7005481161781809849-1431540847@10.10.52.109,,
DERMALIV Inbound,kristin,05/13/2015 13:44:40,3254835554,8888521051,0:0:0,0:0:1,0:0:45,0:0:36,0:0:0,0:0:9,0:0:0,AGENT,,,,476b6c85-23d2-4f5a-a60b-23d5a8c04a90,BUSINESS/Order_Inquiry,INBOUND,,,4$$Kristin M_5-13-2015 1-45-10 PM_cf402416-ef3b-4629-b76c-e4ade61a8837.wav,,,,,,,0:0:0,,,,0:0:13,0:0:17,,0:0:0,false,1,0:0:0,false,a1d5dcfa-de51-42b6-8240-d06a42e87e03,7005481161780776096-1431539080@10.10.52.109,,
DERMALIV Inbound,,05/13/2015 13:20:12,3254835554,8553426682,,,0:0:0,0:0:0,0:0:0,0:0:0,0:3:46,PARKING_SERVICE,,yes,,,SYSTEM/HANGUP,INBOUND,,,,,,,,,,,,,,0:0:12,0:0:32,,0:0:0,false,1,0:0:0,false,81793662-c71b-48c8-b7ee-0b5f74e7e8dd,7005481161779853250-1431537571@10.10.52.109,18554105996,
DERMALIV Inbound,kristin,05/13/2015 13:11:09,7704756872,8888521051,0:0:0,0:0:6,0:9:46,0:9:40,0:0:0,0:0:7,0:0:0,AGENT,,,,10326041-2d2f-4f7a-9f0d-a532c50e44bb,BUSINESS/Product_Question,INBOUND,,,4$$Kristin M_5-13-2015 1-11-36 PM_9f5181d1-b93b-4600-be44-e17c07fd5fdc.wav,,,,,,,0:0:0,,,,0:0:21,0:0:6,,0:0:0,false,1,0:0:0,false,46d31d28-9bb2-4c7e-9be3-b550842266bd,7005481161779555911-1431537069@10.10.52.109,,
DERMALIV Inbound,joec,05/13/2015 13:06:26,9187622281,8888521051,0:0:0,0:0:6,1:3:18,0:1:6,0:0:0,1:2:13,0:0:0,AGENT,,,,9957d7f0-23db-42a5-8179-3778224354ec,SYSTEM/HANGUP,INBOUND,,,4$$Joe C_5-13-2015 1-06-45 PM_efb9d436-ec88-49f0-b696-77467dbc4fed.wav,,,,,,,0:0:0,,,,0:0:12,0:0:6,,0:0:0,false,1,0:0:0,false,784e0d6e-d915-4dee-a306-b23baa9d52e9,7005481161779389371-1431536786@10.10.52.109,,
DERMALIV Inbound,kristin,05/13/2015 12:57:07,4235962278,8888521051,0:0:0,0:0:7,0:7:7,0:6:57,0:0:0,0:0:10,0:0:0,AGENT,,,,93ee139f-bc19-488a-921a-a213d186ae8f,BUSINESS/RMA_UNDERSIRABLE_RESULT,INBOUND,,,4$$Kristin M_5-13-2015 12-57-33 PM_9e3aa81d-2d52-4e2d-a9e0-f8d698680188.wav,,,,,,,0:0:0,,,,0:0:19,0:0:7,,0:0:0,false,1,0:0:0,false,a48888af-7678-4043-aa50-c62b0c1290cb,7005481161779029785-1431536227@10.10.52.109,,
DERMALIV Inbound,joec,05/13/2015 12:50:35,17603209233,18887712337,0:0:22,0:0:0,0:0:33,0:0:33,0:0:0,0:0:0,0:0:0,AGENT,,,,,SYSTEM/HANGUP,OUTBOUND,,,4$$Joe C_5-13-2015 12-48-51 PM_57892164-213b-4261-9328-c2c2d717920f.wav,,,,,,,0:1:10,,,,,,,0:0:0,,,,,47f800a0-4527-48db-abb9-b19362ed5a12,501ac9e5c75c4321b2dd2d41af3791cd,,
DERMALIV Inbound,kristin,05/13/2015 12:45:58,5084295497,8887712337,0:0:0,0:0:8,0:4:54,0:4:39,0:0:0,0:0:15,0:0:0,AGENT,,,,ac08b309-863e-4c58-bab0-b80625f21c8f,BUSINESS/Product_Question,INBOUND,,,4$$Kristin M_5-13-2015 12-46-19 PM_22e6434c-e128-465a-8cb9-2f7e69116e72.wav,,,,,,,0:0:0,,,,0:0:13,0:0:8,,0:0:0,false,1,0:0:0,false,2d1b8355-a1ed-48a3-918a-43de9ab7bda9,7005481161778584626-1431535557@10.10.52.109,,
SYNERGY Inbound,,05/13/2015 12:42:47,7347301914,8008657053,,,0:0:0,0:0:0,0:0:0,0:0:0,0:8:21,PARKING_SERVICE,,yes,,,SYSTEM/HANGUP,INBOUND,,,,,,,,,,,,,,0:0:14,0:0:48,,0:0:0,false,1,0:0:0,false,1750e366-a7bb-4cca-940f-cfd9b6584391,7005481161778464344-1431535367@10.10.52.109,18554105992,
DERMALIV Inbound,joec,05/13/2015 12:40:46,3105292364,8888521051,0:0:0,0:0:10,0:9:25,0:3:54,0:0:0,0:5:31,0:0:0,AGENT,,,,909e78a2-23cc-4b07-935c-65127fa985bc,SYSTEM/HANGUP,INBOUND,,,4$$Joe C_5-13-2015 12-41-18 PM_a754370a-9d81-4d53-aff0-23a47dc84359.wav,,,,,,,0:0:0,,,,0:0:22,0:0:10,,0:0:0,false,1,0:0:0,false,74844dcb-a157-4449-8a6d-d031128e0aaf,7005481161778388499-1431535246@10.10.52.109,,
DERMALIV Inbound,kristin,05/13/2015 11:58:45,8566272627,8888521051,0:0:0,0:0:15,0:1:15,0:1:11,0:0:0,0:0:4,0:0:0,AGENT,,,,3efd9504-11af-4e54-b267-07460677a219,BUSINESS/Cancel_No_action_needed,INBOUND,,,4$$Kristin M_5-13-2015 11-59-21 AM_0d4e40ce-467b-4502-9b09-506abd526b8b.wav,,,,,,,0:0:0,,,,0:0:20,0:0:15,,0:0:0,false,1,0:0:0,false,cf23fbb4-ff6c-4d92-a2d8-583fb7635df0,7005481161776796985-1431532725@10.10.52.109,,
DERMALIV Inbound,joec,05/13/2015 11:49:30,4074973500,8888521051,0:0:0,0:0:3,0:5:47,0:1:20,0:0:52,0:3:35,0:0:0,AGENT,,,,0551cd96-f669-4b3a-96eb-fbd5db2f2925,BUSINESS/Order_Inquiry,INBOUND,,,4$$Joe C_5-13-2015 11-50-08 AM_ea54be74-cb5a-4a87-b30a-cb27577961a4.wav,,,,,,,0:0:0,,,,0:0:35,0:0:3,,0:0:0,false,1,0:0:0,false,f7d2d1f9-4940-44ca-aaf1-42bfcf5802b9,7005481161776438262-1431532170@10.10.52.109,,
DERMALIV Inbound,kristin,05/13/2015 11:39:34,14142171691,18887712337,0:0:19,0:0:0,0:0:52,0:0:52,0:0:0,0:0:0,0:0:0,AGENT,,,,,SYSTEM/HANGUP,OUTBOUND,,,4$$Kristin M_5-13-2015 11-38-23 AM_7a0b4a7f-1ec5-42ef-8134-7cccbec36648.wav,,,,,,,0:0:19,,,,,,,0:0:0,,,,,5eb45e64-caaf-4a17-bea9-47fd52b5ccad,86e2c94195ee4ef2a768229c3b043273,,
SYNERGY Inbound,joec,05/13/2015 11:34:59,3475283941,8008657053,0:0:0,0:0:3,0:1:23,0:1:14,0:0:0,0:0:9,0:0:0,AGENT,,,,eee9513e-d52d-4e13-8983-8717d0c5993c,BUSINESS/Order_Inquiry,INBOUND,,,3$$Joe C_5-13-2015 11-35-17 AM_5368fba4-3c63-4ef9-8fec-8a2488cb2917.wav,,,,,,,0:0:0,,,,0:0:13,0:0:5,,0:0:0,false,1,0:0:0,false,71b344fb-f57a-4619-b26d-4c1ee5548059,7005481161775866907-1431531299@10.10.52.109,,
DERMALIV Inbound,kristin,05/13/2015 11:34:55,4142862187,8887712337,0:0:0,0:0:5,0:4:22,0:2:11,0:0:0,0:2:11,0:0:0,AGENT,,,,e8b0967b-9955-46df-90d2-dedacebeaca6,BUSINESS/Cancel_No_action_needed,INBOUND,,,4$$Kristin M_5-13-2015 11-35-16 AM_0844fbde-e22c-443d-8082-035609873573.wav,,,,,,,0:0:0,,,,0:0:16,0:0:5,,0:0:0,false,1,0:0:0,false,a1e277c5-1e8b-4bee-b8de-2ab54eb5c5f0,7005481161775864299-1431531295@10.10.52.109,,
DERMALIV Inbound,joec,05/13/2015 11:33:13,3018512656,8887712337,0:0:0,0:0:3,0:1:48,0:1:43,0:0:0,0:0:5,0:0:0,AGENT,,,,2ec55ea5-faad-436a-8a23-289028c503fc,BUSINESS/Refund_Status,INBOUND,,,4$$Joe C_5-13-2015 11-33-25 AM_fca38ade-d16b-4388-bb17-1aa7a5dd7a09.wav,,,,,,,0:0:0,,,,0:0:10,0:0:3,,0:0:0,false,1,0:0:0,false,4a358ee7-dbd5-49af-8ad3-1345e1fb2c39,7005481161775798480-1431531192@10.10.52.109,,
DERMALIV Inbound,kristin,05/13/2015 11:32:38,3866750358,8887712337,0:0:0,0:0:11,0:0:52,0:0:12,0:0:0,0:0:40,0:0:0,AGENT,,,,3baaa6d8-43cb-4d69-ab7f-475c2123d276,BUSINESS/ANSWERING_MACHINE,INBOUND,,,4$$Kristin M_5-13-2015 11-32-59 AM_ea8bc20f-efad-4e7f-a5d6-a3daa1d31d8d.wav,,,,,,,0:0:0,,,,0:0:9,0:0:11,,0:0:0,false,1,0:0:0,false,a4818f4d-11f2-4d44-b2a6-89408fe647a9,7005481161775774051-1431531156@10.10.52.109,,
SYNERGY Inbound,,05/13/2015 11:32:15,3475283941,8008657053,,,0:0:0,0:0:0,0:0:0,0:0:0,0:0:0,PARKING_SERVICE,,,,,SYSTEM/HANGUP,INBOUND,,,,,,,,,,,,,,0:0:12,0:0:11,,0:0:0,true,1,0:0:0,false,63c923b2-518b-4bae-b5cb-f162248403c1,7005481161775759170-1431531134@10.10.52.109,,
SYNERGY Inbound,joec,05/13/2015 11:01:48,2695064040,8008657053,0:0:0,0:0:4,0:2:3,0:1:50,0:0:0,0:0:13,0:0:0,AGENT,,,,68026aff-80bf-420c-b1b8-e6783b79e2f5,BUSINESS/Order_Inquiry,INBOUND,,,3$$Joe C_5-13-2015 11-02-06 AM_ea18bbec-0754-4f12-9025-fc6e7c11ae45.wav,,,,,,,0:0:0,,,,0:0:14,0:0:4,,0:0:0,false,1,0:0:0,false,4514a927-ff56-4044-b23b-5ebf1155a863,7005481161774587715-1431529308@10.10.52.109,,
SYNERGY Inbound,,05/13/2015 11:01:02,7345953001,8008657053,,,0:0:0,0:0:0,0:0:0,0:0:0,0:0:0,IVR,,,,,SYSTEM/HANGUP,INBOUND,,,,,,,,,,,,,,0:0:6,,,0:0:0,,,,,a99fe0c6-bd92-4952-b712-c14ab22d329e,7005481161774557655-1431529262@10.10.52.109,,
SYNERGY Inbound,,05/13/2015 11:00:29,7345953001,8008657053,,,0:0:0,0:0:0,0:0:0,0:0:0,0:0:0,IVR,,,,,SYSTEM/HANGUP,INBOUND,,,,,,,,,,,,,,0:0:13,,,0:0:0,,,,,529cc4c3-f697-492c-b39f-3e7613e5c023,7005481161774535830-1431529229@10.10.52.109,,
DERMALIV Inbound,kristin,05/13/2015 10:30:17,6093315414,8888521051,0:0:0,0:0:5,0:2:6,0:2:1,0:0:0,0:0:5,0:0:0,AGENT,,,,f50d1432-3c8c-4ae2-82ef-ad2b02a6bac9,BUSINESS/Cancel_No_action_needed,INBOUND,,,4$$Kristin M_5-13-2015 10-30-45 AM_40442db2-caf8-4bce-b4aa-f94123a0943e.wav,,,,,,,0:0:0,,,,0:0:24,0:0:5,,0:0:0,false,1,0:0:0,false,be346387-570e-4af9-93b6-18127af7b572,7005481161773488184-1431527416@10.10.52.109,,
SYNERGY Inbound,joec,05/13/2015 10:12:29,4097182738,8008657053,0:0:0,0:0:6,0:13:25,0:8:33,0:2:6,0:2:47,0:0:0,AGENT,,,,023da2c6-e2b1-4f8e-a579-76e927f275f8,BUSINESS/Order_Inquiry,INBOUND,,,3$$Joe C_5-13-2015 10-12-51 AM_d56fbb3c-a932-4c6f-b10b-5619759eddee.wav,,,,,,,0:0:0,,,,0:0:16,0:0:6,,0:0:0,false,1,0:0:0,false,c652993d-155b-45e5-b5fb-1fe8fb93b5dd,7005481161772945104-1431526348@10.10.52.109,,
DERMALIV Inbound,,05/13/2015 10:06:22,9736750278,8887712337,,,0:0:0,0:0:0,0:0:0,0:0:0,0:26:46,PARKING_SERVICE,,yes,,,SYSTEM/HANGUP,INBOUND,,,,,,,,,,,,,,0:0:16,0:0:48,,0:0:0,false,1,0:0:0,false,85001972-899e-4520-884e-c090e5d4d645,7005481161772761784-1431525982@10.10.52.109,18554105996,
DERMALIV Inbound,joec,05/13/2015 10:01:20,9045573195,8887712337,0:0:0,0:0:4,0:7:59,0:7:45,0:0:0,0:0:15,0:0:0,AGENT,,,,a11ecf75-8e27-4a7d-9884-a980b951644a,BUSINESS/Refund_Status,INBOUND,,,4$$Joe C_5-13-2015 10-01-59 AM_2f107c7b-30e0-475d-8b71-b6b44b4c0e46.wav,,,,,,,0:0:0,,,,0:0:5,0:0:34,,0:0:0,false,1,0:0:0,false,f21fc487-b00d-4992-9f4b-08b95ac50a0b,7005481161772609827-1431525680@10.10.52.109,,
DERMALIV Inbound,,05/13/2015 09:59:37,9045573195,8887712337,,,0:0:0,0:0:0,0:0:0,0:0:0,0:0:3,PARKING_SERVICE,,yes,,,SYSTEM/HANGUP,INBOUND,,,,,,,,,,,,,,0:0:25,0:0:48,,0:0:0,false,1,0:0:0,false,342b3141-7179-4f01-969c-549c34c52622,7005481161772565751-1431525577@10.10.52.109,18554105996,
DERMALIV Inbound,joec,05/13/2015 09:56:35,5706463596,8887712337,0:0:0,0:0:6,0:5:1,0:2:5,0:0:0,0:2:56,0:0:0,AGENT,,,,f0d3b14a-f8e8-4bca-87d0-b783f457494f,BUSINESS/Order_Status,INBOUND,,,4$$Joe C_5-13-2015 9-56-53 AM_a500df1c-2f76-465c-ab19-cdecc8bddf66.wav,,,,,,,0:0:0,,,,0:0:12,0:0:6,,0:0:0,false,1,0:0:0,false,b7671239-5d70-4f07-94f9-09045f9197d9,7005481161772498028-1431525395@10.10.52.109,,
test inbound,,05/13/2015 09:47:32,8604345166,8664906160,,,0:0:0,0:0:0,0:0:0,0:0:0,0:19:42,PARKING_SERVICE,,yes,,,SYSTEM/HANGUP,INBOUND,,,,,,,,,,,,,,0:0:0,0:0:33,,0:0:0,false,1,0:0:0,false,50152881-c8af-491e-a980-fe5d7ef2a160,7005481161772291858-1431524852@10.10.52.109,18554105996,
DERMALIV Inbound,joec,05/13/2015 09:34:41,7082169000,8887712337,0:0:0,0:0:15,0:0:50,0:0:43,0:0:0,0:0:7,0:0:0,AGENT,,,,aa47a7d4-0c67-4c06-bb9d-b5d8f582f6f0,BUSINESS/Order_Inquiry,INBOUND,,,4$$Joe C_5-13-2015 9-35-33 AM_c55e0d7e-49ef-4d97-bf59-e0cc340ea7c9.wav,,,,,,,0:0:0,,,,0:0:37,0:0:15,,0:0:0,false,1,0:0:0,false,ac372e27-ff24-483b-8c41-3d4b5d93ea6b,7005481161772027146-1431524081@10.10.52.109,,
DERMALIV Inbound,,05/13/2015 09:30:42,9045573195,8887712337,,,0:0:0,0:0:0,0:0:0,0:0:0,0:12:24,PARKING_SERVICE,,yes,,,SYSTEM/HANGUP,INBOUND,,,,,,,,,,,,,,0:0:31,0:0:32,,0:0:0,false,1,0:0:0,false,7f166851-95e5-4691-91c9-1d6f2a5cdad6,7005481161771948362-1431523842@10.10.52.109,18554105996,
DERMALIV Inbound,,05/13/2015 09:10:36,7182530690,8887712337,,,0:0:0,0:0:0,0:0:0,0:0:0,0:8:3,PARKING_SERVICE,,yes,,,SYSTEM/HANGUP,INBOUND,,,,,,,,,,,,,,0:0:11,0:0:48,,0:0:0,false,1,0:0:0,false,3057894b-f5eb-418a-a57d-e4d35f5d0d3d,7005481161771586184-1431522636@10.10.52.109,18554105996,
